…
``` r
# Potential data issue: DCODE mapping to more than one District_Name
district_summary %>%
  filter(district_name_count > 1) %>%
  arrange(desc(n_schools))
```

```
## # A tibble: 244 × 4
##    DCODE n_schools district_name_count total_enroll
##    <int>     <int>               <int>        <dbl>
##  1 82010       129                   3        44562
##  2 41010        61                   2        11888
##  3 81010        25                   2         9391
##  4 50210        20                   2        15535
##  5 82030        20                   2         9848
##  6  9010        18                   2         4847
##  7 39010        18                   2         5929
##  8 82160        18                   2         6790
##  9 73010        17                   2         4669
## 10 33020        16                   2         6810
## # ℹ 234 more rows
```
…
selected_schools_df %>%
  select(Region, BCODE, tot_all, pseudo_stratum)
```

```
## # A tibble: 87 × 4
##    Region BCODE tot_all pseudo_stratum
##     <dbl> <int>   <dbl>          <dbl>
##  1      2  2282     481              1
##  2      3  2128     294              1
##  3      4  1531     366              1
##  4      5  8833     168              1
##  5      5  4050     621              1
##  6      6  8626      74              1
##  7      6  2468     345              1
##  8      6   287     603              2
##  9      7  3113     107              1
## 10      7  5799     174              1
## # ℹ 77 more rows
```
…
``` r
# Step 2: Check if sampled schools have sufficient size
selected_schools_df <- selected_schools_df %>%
  left_join(regcounts %>% select(Region, b_h), by = "Region") %>%
  mutate(
    # check if the total number of students in the school meets the required number to sample
    sufficient_size = tot_all >= b_h
  )

selected_schools_df %>%
  select(Region, BCODE, tot_all, b_h, sufficient_size)
```

```
## # A tibble: 87 × 5
##    Region BCODE tot_all   b_h sufficient_size
##     <dbl> <int>   <dbl> <dbl> <lgl>          
##  1      2  2282     481    31 TRUE           
##  2      3  2128     294    49 TRUE           
##  3      4  1531     366    27 TRUE           
##  4      5  8833     168    54 TRUE           
##  5      5  4050     621    54 TRUE           
##  6      6  8626      74    63 TRUE           
##  7      6  2468     345    63 TRUE           
##  8      6   287     603    63 TRUE           
##  9      7  3113     107    55 TRUE           
## 10      7  5799     174    55 TRUE           
## # ℹ 77 more rows
```
…
